{
  "images" : [
    {
      "filename" : "a-bright-morning-of-the-brand-new-year.jpg",
      "idiom" : "universal",
      "scale" : "1x"
    },
    {
      "filename" : "a-bright-morning-of-the-brand-new-year-1.jpg",
      "idiom" : "universal",
      "scale" : "2x"
    },
    {
      "filename" : "a-bright-morning-of-the-brand-new-year-2.jpg",
      "idiom" : "universal",
      "scale" : "3x"
    }
  ],
  "info" : {
    "author" : "xcode",
    "version" : 1
  }
}
