{
  "images" : [
    {
      "filename" : "presenta-rama-de-arbol-de-navidad-y-flores-en-el-fondo-de-madera.jpg",
      "idiom" : "universal",
      "scale" : "1x"
    },
    {
      "filename" : "presenta-rama-de-arbol-de-navidad-y-flores-en-el-fondo-de-madera-1.jpg",
      "idiom" : "universal",
      "scale" : "2x"
    },
    {
      "filename" : "presenta-rama-de-arbol-de-navidad-y-flores-en-el-fondo-de-madera-2.jpg",
      "idiom" : "universal",
      "scale" : "3x"
    }
  ],
  "info" : {
    "author" : "xcode",
    "version" : 1
  }
}
